Verilog/t13_binary2onehot/wave.vcd
$date
	Sat Jun 14 17:21:39 2025
$end
$version
	Icarus Verilog
$end
$timescale
	1s
$end
$scope module test $end
$var wire 4 ! out1 [3:0] $end
$var wire 16 " out [15:0] $end
$var parameter 32 # W $end
$var reg 1 $ clk $end
$var reg 4 % in [3:0] $end
$var reg 1 & rstn $end
$var integer 32 ' i [31:0] $end
$scope module b2o $end
$var wire 4 ( in [3:0] $end
$var parameter 32 ) W $end
$var reg 16 * out [15:0] $end
$upscope $end
$scope module o2b $end
$var wire 1 $ clk $end
$var wire 16 + in [15:0] $end
$var wire 1 & rstn $end
$var parameter 32 , W $end
$var reg 4 - out [3:0] $end
$var reg 4 . reg1 [3:0] $end
$upscope $end
$upscope $end
$enddefinitions $end
$comment Show the parameter values. $end
$dumpall
b100 ,
b100 )
b100 #
$end
#0
$dumpvars
bx .
bx -
bx +
bx *
bx (
bx '
0&
bx %
0$
bx "
bx !
$end
#2
b0 !
b0 -
1$
#4
0$
#6
1$
#8
0$
#10
1$
#12
0$
1&
#14
bx !
bx -
1$
#16
0$
#18
1$
#20
0$
#22
b0 .
b1 "
b1 *
b1 +
1$
b0 %
b0 (
b0 '
#24
0$
#26
b0 !
b0 -
b1 .
b10 "
b10 *
b10 +
1$
b1 %
b1 (
b1 '
#28
0$
#30
b1 !
b1 -
b10 .
b100 "
b100 *
b100 +
1$
b10 %
b10 (
b10 '
#32
0$
#34
b10 !
b10 -
b11 .
b1000 "
b1000 *
b1000 +
1$
b11 %
b11 (
b11 '
#36
0$
#38
b11 !
b11 -
b100 .
b10000 "
b10000 *
b10000 +
1$
b100 %
b100 (
b100 '
#40
0$
#42
b100 !
b100 -
b101 .
b100000 "
b100000 *
b100000 +
1$
b101 %
b101 (
b101 '
#44
0$
#46
b101 !
b101 -
b110 .
b1000000 "
b1000000 *
b1000000 +
1$
b110 %
b110 (
b110 '
#48
0$
#50
b110 !
b110 -
b111 .
b10000000 "
b10000000 *
b10000000 +
1$
b111 %
b111 (
b111 '
#52
0$
#54
b111 !
b111 -
b1000 .
b100000000 "
b100000000 *
b100000000 +
1$
b1000 %
b1000 (
b1000 '
#56
0$
#58
b1000 !
b1000 -
b1001 .
b1000000000 "
b1000000000 *
b1000000000 +
1$
b1001 %
b1001 (
b1001 '
#60
0$
#62
b1001 !
b1001 -
b1010 .
b10000000000 "
b10000000000 *
b10000000000 +
1$
b1010 %
b1010 (
b1010 '
#64
0$
#66
b1010 !
b1010 -
b1011 .
b100000000000 "
b100000000000 *
b100000000000 +
1$
b1011 %
b1011 (
b1011 '
#68
0$
#70
b1011 !
b1011 -
b1100 .
b1000000000000 "
b1000000000000 *
b1000000000000 +
1$
b1100 %
b1100 (
b1100 '
#72
0$
#74
b1100 !
b1100 -
b1101 .
b10000000000000 "
b10000000000000 *
b10000000000000 +
1$
b1101 %
b1101 (
b1101 '
#76
0$
#78
b1101 !
b1101 -
b1110 .
b100000000000000 "
b100000000000000 *
b100000000000000 +
1$
b1110 %
b1110 (
b1110 '
#80
0$
#82
b1110 !
b1110 -
1$
b1111 '
