t12_FSM/wave.vcd
$date
	Sun Jun  8 20:38:34 2025
$end
$version
	Icarus Verilog
$end
$timescale
	1s
$end
$scope module test $end
$var wire 1 ! match $end
$var reg 1 " clk $end
$var reg 1 # data_in $end
$var reg 1 $ rstn $end
$scope module pfsm $end
$var wire 1 " clk $end
$var wire 1 # data_in $end
$var wire 1 $ rstn $end
$var parameter 2 % S0 $end
$var parameter 2 & S1 $end
$var parameter 2 ' S2 $end
$var reg 1 ! match $end
$var reg 2 ( nxt_state [1:0] $end
$var reg 2 ) state [1:0] $end
$upscope $end
$scope task run $end
$var integer 32 * N [31:0] $end
$var integer 32 + i [31:0] $end
$upscope $end
$upscope $end
$enddefinitions $end
$comment Show the parameter values. $end
$dumpall
b10 '
b1 &
b0 %
$end
#0
$dumpvars
bx +
bx *
bx )
b0 (
0$
0#
0"
0!
$end
#2
b1 (
b0 )
1"
#4
0"
#6
b1 )
1"
b0 +
b101000 *
1$
#8
b1 +
0"
#10
1"
#12
b10 (
b10 +
1#
0"
#14
b0 (
b10 )
1"
#16
b11 +
0"
#18
b0 )
1"
#20
b100 +
0"
#22
1"
#24
b101 +
0"
#26
1"
#28
b110 +
0"
#30
1"
#32
b111 +
0"
#34
1"
#36
b1 (
b1000 +
0#
0"
#38
b1 )
1"
#40
b10 (
b1001 +
1#
0"
#42
b0 (
b10 )
1"
#44
b1010 +
0"
#46
b0 )
1"
#48
b1 (
b1011 +
0#
0"
#50
b1 )
1"
#52
b10 (
b1100 +
1#
0"
#54
b0 (
b10 )
1"
#56
b1101 +
0"
#58
b0 )
1"
#60
b1 (
b1110 +
0#
0"
#62
b1 )
1"
#64
b10 (
b1111 +
1#
0"
#66
b0 (
b10 )
1"
#68
b1 (
b10000 +
0#
0"
#70
b1 )
1!
1"
#72
b10 (
b10001 +
1#
0"
#74
b0 (
0!
b10 )
1"
#76
b1 (
b10010 +
0#
0"
#78
b1 )
1!
1"
#80
b10 (
b10011 +
1#
0"
#82
b0 (
0!
b10 )
1"
#84
b10100 +
0"
#86
b0 )
1"
#88
b1 (
b10101 +
0#
0"
#90
b1 )
1"
#92
b10 (
b10110 +
1#
0"
#94
b0 (
b10 )
1"
#96
b1 (
b10111 +
0#
0"
#98
1!
b1 )
1"
#100
b11000 +
0"
#102
0!
1"
#104
b11001 +
0"
#106
1"
#108
b10 (
b11010 +
1#
0"
#110
b0 (
b10 )
1"
#112
b1 (
b11011 +
0#
0"
#114
1!
b1 )
1"
#116
b10 (
b11100 +
1#
0"
#118
b0 (
b10 )
0!
1"
#120
b11101 +
0"
#122
b0 )
1"
#124
b11110 +
0"
#126
1"
#128
b11111 +
0"
#130
1"
#132
b1 (
b100000 +
0#
0"
#134
b1 )
1"
#136
b100001 +
0"
#138
1"
#140
b100010 +
0"
#142
1"
#144
b100011 +
0"
#146
1"
#148
b10 (
b100100 +
1#
0"
#150
b0 (
b10 )
1"
#152
b1 (
b100101 +
0#
0"
#154
1!
b1 )
1"
#156
b10 (
b100110 +
1#
0"
#158
b0 (
b10 )
0!
1"
#160
b100111 +
0"
#162
b0 )
1"
#164
b101000 +
0"
